digraph G {

  rankdir="LR";

  node [label="\N", shape=record, width="1.7", height="0.8", bgcolor="#ffffff"];

  admin_client [ label="Admin\nwork-station" ];
  pdns_auth [ label="PowerDNS\nAuthoritative\nServer" ];
  isc_dhcp [ label="ISC dhcpd" ];
  infra_ldap [ label="Infrastructure\nLDAP" ];
  aedir_consumer [ label="Æ-DIR\nconsumer" ];

  admin_client -> infra_ldap [ label="maintain\nDNS and DHCP\nentries (LDAPS)" ];
  admin_client -> pdns_auth [ label="maintain" ];
  admin_client -> isc_dhcp [ label="maintain" ];

  pdns_auth -> infra_ldap [ label="query data\n(LDAPI or LDAPS)" ];
  isc_dhcp -> infra_ldap [ label="query data\n(LDAPI or LDAPS)" ];

  infra_ldap -> aedir_consumer [ label="check admin password,\nquery group membership\n(LDAPS)" ];

}
